<svg width="19" height="14" viewBox="0 0 19 14" fill="none" xmlns="http://www.w3.org/2000/svg">
<path d="M18.1214 2.41429L16.0001 0.292969L6.70718 9.58586L2.41429 5.29297L0.292969 7.41429L6.70718 13.8285L18.1214 2.41429Z" fill="black"/>
</svg>
