<svg width="32" height="32" viewBox="0 0 32 32" fill="none" xmlns="http://www.w3.org/2000/svg">
<path d="M10.0146 26.417C9.04657 24.681 8.53462 22.553 8.53462 20.249C8.53462 16.377 11.8866 13.225 15.9986 13.225C20.1186 13.225 23.4626 16.3771 23.4626 20.249C23.4626 20.689 23.8226 21.049 24.2626 21.049C24.7027 21.049 25.0627 20.689 25.0627 20.249C25.0627 15.489 20.9986 11.625 15.9987 11.625C10.9987 11.625 6.93457 15.497 6.93457 20.249C6.93457 22.825 7.5186 25.233 8.62259 27.201C9.70259 29.129 10.4546 30.017 11.8386 31.417C11.9986 31.5769 12.1986 31.657 12.4066 31.657C12.6066 31.657 12.8146 31.585 12.9586 31.417C13.2786 31.113 13.2786 30.601 12.9666 30.289C11.7346 29.0491 11.0466 28.2571 10.0146 26.417Z" fill="black"/>
<path d="M7.1024 3.85597C9.84643 2.35995 12.8384 1.59997 16.0144 1.59997C19.1984 1.59997 21.8624 2.28 24.9264 3.864C25.0464 3.92002 25.1664 3.95197 25.2945 3.95197C25.5825 3.95197 25.8624 3.792 26.0064 3.51997C26.2065 3.12795 26.0544 2.64 25.6624 2.43997C22.3984 0.752024 19.4224 0 16.0144 0C12.5744 0 9.31843 0.824024 6.3344 2.448C5.94238 2.664 5.8064 3.144 6.01438 3.53602C6.23038 3.92797 6.71038 4.06402 7.1024 3.85597Z" fill="black"/>
<path d="M15.9425 7.72656C10.7825 7.72656 6.06254 10.6146 3.92654 15.0786C3.19852 16.5906 2.83057 18.3345 2.83057 20.2545C2.83057 22.4145 3.21457 24.4785 3.99854 26.5825C4.15852 26.9985 4.61451 27.2065 5.03054 27.0545C5.44656 26.8945 5.65454 26.4385 5.50251 26.0225C4.55047 23.4705 4.43849 21.5025 4.43849 20.2545C4.43849 18.5745 4.75049 17.0625 5.37449 15.7665C7.24649 11.8465 11.3985 9.31858 15.9505 9.31858C22.3425 9.31858 27.5424 14.2226 27.5424 20.2545C27.5424 21.9745 26.0464 23.3665 24.2145 23.3665C22.3825 23.3665 20.8865 21.9665 20.8865 20.2545C20.8865 17.6545 18.6785 15.5425 15.9585 15.5425C13.2385 15.5425 11.0305 17.6545 11.0305 20.2545C11.0305 23.4145 12.2625 26.3826 14.4945 28.6065C16.2225 30.3265 17.8865 31.2705 20.4385 31.9665C20.5024 31.9905 20.5744 31.9985 20.6464 31.9985C20.9984 31.9985 21.3184 31.7666 21.4144 31.4145C21.5344 30.9905 21.2785 30.5505 20.8544 30.4305C18.5984 29.8145 17.1264 28.9825 15.6144 27.4785C13.6864 25.5585 12.6224 22.9905 12.6224 20.2626C12.6224 18.5426 14.1184 17.1506 15.9504 17.1506C17.7823 17.1506 19.2784 18.5506 19.2784 20.2626C19.2784 22.8626 21.4944 24.9746 24.2064 24.9746C26.9184 24.9746 29.1344 22.8626 29.1344 20.2626C29.1345 13.3506 23.2145 7.72656 15.9425 7.72656Z" fill="black"/>
<path d="M30.2545 11.0413C28.6625 8.81734 26.6465 7.0733 24.2545 5.84135C19.2145 3.24935 12.7825 3.25737 7.75054 5.85732C5.35054 7.0973 3.32652 8.85732 1.74252 11.0973C1.48655 11.4573 1.57452 11.9533 1.93452 12.2094C2.07852 12.3054 2.23849 12.3534 2.39854 12.3534C2.64657 12.3534 2.89452 12.2414 3.05457 12.0254C4.48654 9.99342 6.31857 8.40139 8.48659 7.28142C13.0706 4.91345 18.9346 4.90542 23.5266 7.26545C25.6866 8.36944 27.5106 9.95344 28.9506 11.9694C29.2065 12.3294 29.7105 12.4095 30.0705 12.1534C30.4305 11.8973 30.5105 11.4013 30.2545 11.0413Z" fill="black"/>
<path d="M25.5424 26.945C24.9024 27.057 24.2544 27.0971 23.8704 27.0971C22.2705 27.0971 20.9424 26.7211 19.8144 25.9531C17.8704 24.6331 16.7104 22.5051 16.7104 20.2571C16.7104 19.817 16.3504 19.457 15.9104 19.457C15.4704 19.457 15.1104 19.817 15.1104 20.2571C15.1104 23.0411 16.5344 25.6651 18.9104 27.281C20.2944 28.217 21.9664 28.697 23.8704 28.697C24.0944 28.697 24.8864 28.689 25.8224 28.521C26.2544 28.441 26.5504 28.025 26.4704 27.593C26.3904 27.161 25.9744 26.8651 25.5424 26.945Z" fill="black"/>
</svg>
