<svg width="17" height="16" viewBox="0 0 17 16" fill="none" xmlns="http://www.w3.org/2000/svg">
<path d="M14.2831 1.9399C13.9095 1.59643 12.397 0.496737 9.02562 0.481673C9.02562 0.481673 5.05165 0.240643 3.11437 2.01823C2.03577 3.09684 1.65615 4.67257 1.61698 6.63093C1.57781 8.58628 1.52659 12.2529 5.06068 13.2472H5.0637L5.06068 14.7627C5.06068 14.7627 5.0396 15.3773 5.44332 15.5008C5.9314 15.6515 6.22064 15.1845 6.68763 14.6813C6.94373 14.4041 7.29623 14.0004 7.56438 13.6901C9.9807 13.8919 11.8396 13.428 12.0505 13.3587C12.5386 13.199 15.3014 12.8465 15.7503 9.17982C16.2143 5.40771 15.5244 3.01851 14.2831 1.9399ZM14.6928 8.91469C14.3132 11.9758 12.0746 12.1686 11.6619 12.3011C11.4871 12.3584 9.85416 12.7651 7.79938 12.6295C7.79938 12.6295 6.26884 14.4764 5.79281 14.9555C5.71749 15.0308 5.63012 15.0609 5.57287 15.0459C5.49152 15.0248 5.46742 14.9284 5.47043 14.7868C5.47043 14.5819 5.48249 12.265 5.48249 12.265C5.47947 12.265 5.47947 12.265 5.48249 12.265C2.49071 11.4365 2.66546 8.31513 2.6986 6.68215C2.73174 5.04918 3.03905 3.70845 3.95195 2.80761C5.58794 1.32528 8.96536 1.54521 8.96536 1.54521C11.8155 1.55727 13.1804 2.41593 13.4967 2.70216C14.5482 3.60601 15.0845 5.76021 14.6928 8.91469Z" fill="white"/>
<path d="M10.4139 6.73871C10.3145 6.73871 10.2302 6.66038 10.2241 6.55794C10.191 5.91017 9.8867 5.59382 9.26605 5.56068C9.1606 5.55466 9.07925 5.46427 9.08528 5.35882C9.0913 5.25337 9.18169 5.17202 9.28714 5.17805C10.1066 5.22324 10.5646 5.69325 10.6068 6.53685C10.6128 6.6423 10.5315 6.73269 10.426 6.7357C10.42 6.73871 10.417 6.73871 10.4139 6.73871Z" fill="white"/>
<path d="M11.3907 7.06438H11.3877C11.2822 7.06136 11.1979 6.97399 11.2009 6.86854C11.2159 6.21776 11.0291 5.69051 10.6314 5.25666C10.2368 4.8228 9.69143 4.5878 8.97136 4.53658C8.8659 4.52754 8.78757 4.43716 8.79661 4.33171C8.80565 4.22626 8.89603 4.14792 9.00148 4.15696C9.81496 4.21722 10.4567 4.50043 10.9147 5.00056C11.3756 5.50371 11.5986 6.1334 11.5835 6.87758C11.5805 6.98303 11.4931 7.06438 11.3907 7.06438Z" fill="white"/>
<path d="M12.3918 7.45544C12.2863 7.45544 12.2019 7.37108 12.2019 7.26563C12.1929 6.09965 11.8585 5.21086 11.1776 4.54502C10.5057 3.88821 9.65306 3.55378 8.64977 3.54474C8.54432 3.54474 8.45996 3.45737 8.45996 3.35192C8.45996 3.24647 8.54733 3.16211 8.64977 3.16211C9.75549 3.17115 10.6955 3.54173 11.4397 4.27084C12.1869 4.99996 12.5695 6.00625 12.5816 7.25961C12.5846 7.36807 12.5002 7.45544 12.3918 7.45544C12.3948 7.45544 12.3948 7.45544 12.3918 7.45544Z" fill="white"/>
<path d="M9.31237 9.09867C9.31237 9.09867 9.58052 9.12278 9.72514 8.94502L10.0053 8.59251C10.1409 8.41776 10.4693 8.30629 10.7887 8.48405C10.9664 8.58347 11.2888 8.78232 11.4877 8.92995C11.7016 9.08662 12.1354 9.44816 12.1384 9.45118C12.3463 9.62592 12.3945 9.88202 12.2529 10.1562C12.2529 10.1562 12.2529 10.1592 12.2529 10.1622C12.1083 10.4183 11.9125 10.6593 11.6684 10.8823C11.6654 10.8823 11.6654 10.8853 11.6624 10.8853C11.4605 11.054 11.2617 11.1504 11.0689 11.1715C11.0448 11.1776 11.0177 11.1776 10.9815 11.1776C10.8971 11.1776 10.8128 11.1655 10.7284 11.1384L10.7224 11.1293C10.4211 11.045 9.92097 10.8341 9.08942 10.3731C8.54711 10.0748 8.09819 9.77054 7.71555 9.46624C7.51369 9.30656 7.30882 9.1288 7.09792 8.9179C7.09189 8.91188 7.08285 8.90284 7.07683 8.89681C7.0708 8.89078 7.06176 8.88175 7.05574 8.87572C7.04971 8.86969 7.04067 8.86066 7.03465 8.85463C7.02862 8.8486 7.01958 8.83957 7.01356 8.83354C6.80567 8.62264 6.6249 8.41776 6.46521 8.2159C6.16092 7.83628 5.85662 7.38435 5.55834 6.84204C5.09737 6.00747 4.88647 5.50734 4.80211 5.20906L4.79307 5.20304C4.76596 5.11868 4.75391 5.03432 4.75391 4.94995C4.75391 4.9138 4.75391 4.88668 4.75993 4.86258C4.78404 4.66675 4.88045 4.47091 5.04615 4.26905C5.04615 4.26603 5.04917 4.26603 5.04917 4.26302C5.27212 4.01597 5.51315 3.82314 5.76924 3.67853C5.76924 3.67853 5.77226 3.67853 5.77527 3.67853C6.04643 3.53692 6.30252 3.58513 6.48028 3.79301C6.48028 3.79301 6.84484 4.22988 7.00151 4.44379C7.14914 4.64566 7.34799 4.96502 7.44741 5.14278C7.62517 5.46214 7.51369 5.79054 7.33895 5.92612L6.98644 6.20632C6.80868 6.35094 6.83278 6.61908 6.83278 6.61908C6.83278 6.61908 7.35401 8.60155 9.31237 9.09867Z" fill="white"/>
</svg>
