<svg width="64" height="64" viewBox="0 0 64 64" fill="none" xmlns="http://www.w3.org/2000/svg">
<g clip-path="url(#clip0)">
<path d="M31.9962 0C40.6418 0 46.9632 2.89684 47.6369 5.61403C47.6325 5.69632 47.6325 5.77877 47.6369 5.86105C47.4011 7.52281 46.6938 12.5979 39.5976 14.5965C37.6419 15.1482 35.976 16.4359 34.9492 18.1895C34.5501 16.8299 34.0081 15.5164 33.3324 14.2709C35.1855 11.2943 37.3743 8.54033 39.8559 6.06316C40.4935 5.41284 40.6752 4.44177 40.3159 3.60489C39.9565 2.768 39.1272 2.23106 38.2166 2.24561H25.7759C24.87 2.2356 24.0469 2.77083 23.6886 3.60283C23.3303 4.43483 23.5069 5.40065 24.1366 6.05193C26.3822 8.38737 31.2664 13.7881 32.6924 18.7396C30.5141 17.0105 26.9885 15.6295 22.1155 14.5965C16.9281 13.4737 15.0418 10.4084 16.2208 5.87228C16.2227 5.83862 16.2227 5.80488 16.2208 5.77123C16.726 2.99789 23.1597 0 31.9962 0V0ZM38.2166 4.49123C35.9027 6.83868 33.8197 9.40297 31.9962 12.1488C30.1764 9.40026 28.0931 6.83563 25.7759 4.49123H38.2166ZM10.8425 56.4772C10.6404 55.9832 10.7864 56.0505 11.7969 52.2217C18.0285 28.3509 14.0987 19.0765 13.919 18.6835C13.664 18.1264 13.0095 17.8766 12.4481 18.1221C11.8824 18.3686 11.6216 19.0256 11.8643 19.593C11.8643 19.6828 15.5471 28.5754 9.79832 51.0316C5.30709 51.7053 3.47692 49.3361 2.85938 48.2695C5.21832 39.0769 7.07372 29.7625 8.41727 20.3677C9.75341 11.0035 12.2124 8.01684 13.7057 7.12982C13.1892 11.7109 15.6145 15.5621 21.6776 16.8196C25.5401 17.6281 33.1303 19.6603 33.1303 23.5565V60.9684C16.5352 66.807 11.8867 59.0372 10.8425 56.4772ZM53.3296 50.7621C47.3674 27.8568 51.9934 19.7502 52.0383 19.6828C52.2509 19.3418 52.2655 18.9133 52.0765 18.5587C51.8875 18.2041 51.5237 17.9773 51.1221 17.9637C50.7205 17.95 50.3422 18.1517 50.1296 18.4926C49.9162 18.8407 44.7962 27.4751 51.3197 51.9747C51.5892 52.9965 51.8699 54.0407 52.1843 55.1074C52.072 55.9832 51.3759 59.8793 48.1534 61.8442C45.1892 63.6182 40.8889 63.3263 35.3646 61.0246V25.8246H37.8124C38.3592 27.3713 39.9408 28.2991 41.5577 28.0217C43.1747 27.7442 44.3566 26.3423 44.3566 24.7018C44.3566 23.0612 43.1747 21.6593 41.5577 21.3818C39.9408 21.1044 38.3592 22.0322 37.8124 23.5789H35.3646C35.9934 19.8063 37.6103 17.527 40.1366 16.8421C45.3576 15.3488 48.7485 12.1039 49.6917 6.89403C51.039 7.3993 54.0369 9.71228 55.5639 20.3677C56.9159 29.7269 58.7674 39.007 61.1106 48.1684C60.4369 49.4035 58.3485 51.8849 53.3296 50.7621ZM39.8559 24.7018C39.8559 24.0816 40.3586 23.5789 40.9787 23.5789C41.5988 23.5789 42.1015 24.0816 42.1015 24.7018C42.1015 25.3219 41.5988 25.8246 40.9787 25.8246C40.3586 25.8246 39.8559 25.3219 39.8559 24.7018Z" fill="#455A64"/>
</g>
<defs>
<clipPath id="clip0">
<rect width="64" height="64" fill="white"/>
</clipPath>
</defs>
</svg>
