<svg width="64" height="64" viewBox="0 0 64 64" fill="none" xmlns="http://www.w3.org/2000/svg">
<path d="M48.6777 26.25H38.0723C38.8467 28.4326 40.9307 30 43.375 30C45.8193 30 47.9033 28.4326 48.6777 26.25Z" fill="#455A64"/>
<path d="M15 9.375H41.5V13.125H15V9.375Z" fill="#455A64"/>
<path d="M25.9277 26.25H15.3223C16.0967 28.4326 18.1807 30 20.625 30C23.0693 30 25.1533 28.4326 25.9277 26.25Z" fill="#455A64"/>
<path d="M17.0923 52.75H24.1567L26.042 41.25H15.207L17.0923 52.75Z" fill="#455A64"/>
<path d="M33.8755 43.25C33.8755 42.1475 32.978 41.25 31.8755 41.25H29.8433L29.1875 45.25H31.8755C32.978 45.25 33.8755 44.3525 33.8755 43.25Z" fill="#455A64"/>
<path d="M27.9575 52.75H60.25V26.25H52.5615C51.814 29.918 48.918 32.814 45.25 33.5615V37.5H41.5V33.5615C37.832 32.814 34.936 29.918 34.1885 26.25H29.811C29.064 29.918 26.168 32.814 22.5 33.5615V37.5H31.875C35.0454 37.5 37.625 40.0796 37.625 43.25C37.625 46.4204 35.0454 49 31.875 49H28.5723L27.9575 52.75Z" fill="#455A64"/>
<path d="M10.7925 37.5H18.75V33.5615C15.082 32.814 12.186 29.918 11.4385 26.25H3.75V52.75H13.2925L10.7925 37.5Z" fill="#455A64"/>
<path d="M60.25 0H3.75V22.5H60.25V0ZM45.25 16.875H11.25V5.625H45.25V16.875ZM52.75 16.875H49V13.125H52.75V16.875ZM52.75 9.375H49V5.625H52.75V9.375Z" fill="#455A64"/>
<path d="M0 56.5C0 60.625 3.375 64 7.5 64H56.5C60.625 64 64 60.625 64 56.5H0Z" fill="#455A64"/>
</svg>
