<svg width="64" height="64" viewBox="0 0 64 64" fill="none" xmlns="http://www.w3.org/2000/svg">
<path d="M52.5169 0H11.4834C10.3014 0 9.33984 0.961531 9.33984 2.14354V61.8565C9.33984 63.0385 10.3014 64 11.4834 64H52.5169C53.6989 64 54.6604 63.0385 54.6604 61.8565V2.14354C54.6604 0.961531 53.6989 0 52.5169 0ZM32.6083 27.0196C33.0309 26.5236 33.7462 26.1549 34.336 26.1304C34.4113 26.8188 34.1351 27.5084 33.726 28.0051C33.3157 28.5011 32.6426 28.887 31.9842 28.8355C31.8954 28.1618 32.2286 27.4594 32.6083 27.0196ZM14.801 5.76735C13.8988 5.76735 13.1676 5.0361 13.1676 4.13397C13.1676 3.23185 13.8988 2.50059 14.801 2.50059C15.7031 2.50059 16.4344 3.23185 16.4344 4.13397C16.4344 5.0361 15.7031 5.76735 14.801 5.76735ZM35.9669 36.412C35.4763 37.1273 34.9705 37.839 34.1694 37.8537C33.383 37.8678 33.1307 37.387 32.2316 37.387C31.3326 37.387 31.0521 37.8384 30.3086 37.8678C29.5363 37.8966 28.9483 37.0949 28.4553 36.3826C27.4466 34.9262 26.6768 32.2646 27.7118 30.4683C28.2244 29.576 29.1437 29.0113 30.1402 28.9966C30.8977 28.9831 31.6137 29.5068 32.0767 29.5068C32.5403 29.5068 33.4106 28.8766 34.3243 28.969C34.7071 28.985 35.7813 29.1228 36.4709 30.1321C36.4164 30.1682 35.1891 30.8805 35.2038 32.3675C35.2191 34.1423 36.7612 34.7327 36.779 34.7419C36.7655 34.7835 36.5322 35.5852 35.9669 36.412Z" fill="#455A64"/>
</svg>
