<svg width="64" height="64" viewBox="0 0 64 64" fill="none" xmlns="http://www.w3.org/2000/svg">
<g clip-path="url(#clip0)">
<path d="M7.01765 40.5151L4.85885 41.3547C1.62065 42.7339 -0.0584149 44.1731 0.00155179 45.4324C0.181452 47.2914 2.28028 48.6706 6.11815 49.69C11.0954 51.0093 16.1326 51.3091 21.3497 50.5296V45.3125L17.212 46.8716C12.8944 48.3708 10.6756 47.1115 10.6756 47.1115C10.016 46.6917 9.71615 45.6723 11.5151 45.0126L13.7939 44.1731L21.3497 41.4746V35.418L19.4307 36.0776L7.01765 40.5151Z" fill="#455A64"/>
<path d="M38.5595 19.4676V34.9989C41.7977 36.5581 44.6761 36.678 46.8349 35.0589C49.0537 33.4998 50.253 30.8013 50.253 26.7235C50.253 22.4659 49.4135 19.2277 47.5545 17.0689C45.8755 14.7902 42.8771 12.8712 38.4396 11.3721C32.9227 9.57307 28.2453 8.01394 24.5273 7.23438V53.7085L34.5418 56.7668V18.1483C34.4818 15.8096 38.5595 15.9895 38.5595 19.4676Z" fill="#455A64"/>
<path d="M63.9875 43.4554C63.9276 41.8363 62.0086 40.577 58.5905 39.4377C54.7527 38.1784 51.4545 37.5787 47.8565 37.6986C44.5583 37.7586 40.6005 38.838 37.0625 39.9774V45.9141L46.7771 42.496C46.7771 42.496 49.7155 41.4166 52.2341 42.0762C54.153 42.5559 54.0331 43.6353 52.1141 44.295L49.8954 45.1945L37.0625 49.8119V55.8685L43.0592 53.7097L57.4512 48.6126L59.1302 47.833C62.6083 46.5737 64.1674 45.1945 63.9875 43.4554Z" fill="#455A64"/>
</g>
<defs>
<clipPath id="clip0">
<rect width="64" height="64" fill="white"/>
</clipPath>
</defs>
</svg>
