<svg width="64" height="64" viewBox="0 0 64 64" fill="none" xmlns="http://www.w3.org/2000/svg">
<g clip-path="url(#clip0)">
<path d="M32 16.25C33.0355 16.25 33.875 15.4105 33.875 14.375C33.875 13.3395 33.0355 12.5 32 12.5C30.9645 12.5 30.125 13.3395 30.125 14.375C30.125 15.4105 30.9645 16.25 32 16.25Z" fill="#455A64"/>
<path d="M49.5 12.5C48.4645 12.5 47.625 13.3395 47.625 14.375V16.25H45.125V9.375C45.125 8.3395 44.2855 7.5 43.25 7.5H39.5C38.4645 7.5 37.625 8.3395 37.625 9.375V26.875C37.625 27.9105 38.4645 28.75 39.5 28.75H43.25C44.2855 28.75 45.125 27.9105 45.125 26.875V20H47.625V21.875C47.625 22.9105 48.4645 23.75 49.5 23.75C50.5355 23.75 51.375 22.9105 51.375 21.875V14.375C51.375 13.3395 50.5355 12.5 49.5 12.5Z" fill="#455A64"/>
<path d="M17 13.75H18.875V26.875C18.875 27.9105 19.7145 28.75 20.75 28.75H24.5C25.5355 28.75 26.375 27.9105 26.375 26.875V9.375C26.375 8.3395 25.5355 7.5 24.5 7.5H20.75C19.7145 7.5 18.875 8.3395 18.875 9.375V10H17C15.9645 10 15.125 10.8395 15.125 11.875C15.125 12.9105 15.9645 13.75 17 13.75Z" fill="#455A64"/>
<path d="M30.125 23.7483H33.875V19.6758C33.2881 19.8839 32.6574 19.9983 32 19.9983C31.3426 19.9983 30.7119 19.8839 30.125 19.6758V23.7483Z" fill="#455A64"/>
<path d="M37.7644 40H26.2362L12.9143 61.1246C12.3619 62.0005 12.6242 63.1584 13.5 63.7107C14.3759 64.2631 15.5338 64.0009 16.0862 63.1249L24.688 49.4846L30.1253 52.9096V62.1247C30.1253 63.1602 30.9648 63.9997 32.0003 63.9997C33.0358 63.9997 33.8753 63.1602 33.8753 62.1247V52.9096L39.3124 49.4847L47.9143 63.125C48.4667 64.0009 49.6245 64.2631 50.5004 63.7109C51.3763 63.1585 51.6385 62.0006 51.0862 61.1247L37.7644 40ZM30.1253 48.4776L26.6884 46.3127L30.1253 40.863V48.4776ZM33.8753 48.4776V40.8629L37.3122 46.3127L33.8753 48.4776Z" fill="#455A64"/>
<path d="M24.5 32.5H22.625V34.375C22.625 35.4105 23.4645 36.25 24.5 36.25H39.5C40.5355 36.25 41.375 35.4105 41.375 34.375V32.5H39.5C36.6096 32.5 34.2226 30.3085 33.9105 27.5H30.0894C29.7774 30.3085 27.3904 32.5 24.5 32.5Z" fill="#455A64"/>
<path d="M30.1169 9.07525C30.706 8.86525 31.3396 8.75 32 8.75C32.6604 8.75 33.294 8.86525 33.8831 9.07525C34.0395 6.11237 36.4989 3.75 39.5 3.75H41.375V1.875C41.375 0.8395 40.5355 0 39.5 0H24.5C23.4645 0 22.625 0.8395 22.625 1.875V3.75H24.5C27.5011 3.75 29.9605 6.11237 30.1169 9.07525Z" fill="#455A64"/>
</g>
<defs>
<clipPath id="clip0">
<rect width="64" height="64" fill="white"/>
</clipPath>
</defs>
</svg>
