<svg width="64" height="64" viewBox="0 0 64 64" fill="none" xmlns="http://www.w3.org/2000/svg">
<path d="M50.75 30.0469H33.875V18.4515C36.0527 17.6749 37.625 15.6131 37.625 13.1719C37.625 10.0701 35.1017 7.54688 32 7.54688C28.8983 7.54688 26.375 10.0701 26.375 13.1719C26.375 15.6131 27.9473 17.6749 30.125 18.4515V30.0469H13.25C10.1483 30.0469 7.625 32.5701 7.625 35.6719V54.4219C7.625 57.5236 10.1483 60.0469 13.25 60.0469H22.1745C24.3334 60.0469 26.2688 58.8604 27.2355 56.9323L28.8743 53.5741C29.1929 52.9406 29.8448 52.5469 30.5753 52.5469H33.4244C34.155 52.5469 34.8069 52.9405 35.1162 53.5558L36.7734 56.9505C37.731 58.8603 39.6665 60.0469 41.8252 60.0469H50.75C53.8517 60.0469 56.375 57.5236 56.375 54.4219V35.6719C56.375 32.5701 53.8517 30.0469 50.75 30.0469Z" fill="#455A64"/>
<path d="M50.4446 22.399C51.8911 19.517 52.6254 16.4133 52.6254 13.1741C52.6254 9.93484 51.8911 6.83134 50.4446 3.94922L47.0938 5.63009C48.2766 7.98672 48.8754 10.5246 48.8754 13.1741C48.8754 15.8236 48.2766 18.3615 47.0938 20.7181L50.4446 22.399Z" fill="#455A64"/>
<path d="M16.9066 20.7181C15.7238 18.3615 15.125 15.8237 15.125 13.1741C15.125 10.5245 15.7238 7.98672 16.9066 5.63009L13.5557 3.94922C12.1092 6.83134 11.375 9.93497 11.375 13.1741C11.375 16.4132 12.1092 19.5168 13.5557 22.399L16.9066 20.7181Z" fill="#455A64"/>
<path d="M23.612 17.3681C22.9565 16.0607 22.625 14.6489 22.625 13.1749C22.625 11.7009 22.9564 10.2892 23.612 8.98181L20.2575 7.30469C19.3401 9.13756 18.875 11.1132 18.875 13.1749C18.875 15.2367 19.3401 17.2124 20.2575 19.0453L23.612 17.3681Z" fill="#455A64"/>
<path d="M43.7432 19.0454C44.6605 17.2126 45.1257 15.2368 45.1257 13.1751C45.1257 11.1133 44.6605 9.13756 43.7432 7.30469L40.3887 8.98194C41.0443 10.2893 41.3757 11.7011 41.3757 13.1751C41.3757 14.6491 41.0443 16.0608 40.3887 17.3682L43.7432 19.0454Z" fill="#455A64"/>
<path d="M60.125 37.5469H64V52.5469H60.125V37.5469Z" fill="#455A64"/>
<path d="M0 37.5469H3.875V52.5469H0V37.5469Z" fill="#455A64"/>
</svg>
