<svg width="64" height="64" viewBox="0 0 64 64" fill="none" xmlns="http://www.w3.org/2000/svg">
<path d="M14.2579 5.4295C14.2256 5.45438 14.2007 5.48173 14.1709 5.50661C14.3524 5.31509 14.6136 5.10866 14.7852 4.99674C19.7944 1.74102 25.582 0 32.0039 0C38.0104 0 43.6364 1.65895 48.4392 4.54407C48.7874 4.7505 49.7375 5.40215 50.2274 5.99409V5.99658C45.5938 0.887922 31.9741 11.8489 31.9741 11.8489C27.2633 8.21763 22.9307 5.74289 19.7048 4.86243C17.0087 4.12374 15.1433 4.74056 14.2579 5.4295ZM55.4754 10.2596C55.3336 10.1029 55.1794 9.95616 55.0376 9.7945C53.8662 8.50863 52.4261 8.19773 51.1278 8.28229C49.9464 8.65288 44.487 10.6202 37.7592 16.9725C37.7592 16.9725 45.3327 24.337 49.9713 31.8657C54.6049 39.3944 57.3756 45.3114 55.6719 53.524C60.8427 47.8408 63.9964 40.2898 63.9964 31.9975C63.9964 23.6058 60.7656 15.9677 55.4754 10.2596ZM43.915 35.0816C41.8606 32.776 38.8038 29.473 34.7672 25.4587C33.8842 24.5808 32.9515 23.6655 31.9716 22.7179C31.9716 22.7179 30.4967 24.1928 28.5766 26.1328V26.1303C26.1192 28.6125 22.9332 31.8508 21.1648 33.741C18.016 37.1012 8.99504 47.6543 8.48766 53.5713C8.48766 53.5713 6.48051 48.878 10.8853 38.0538C13.763 30.9778 22.4581 20.3526 26.0894 16.8904C26.0894 16.8904 22.7715 13.2392 18.608 10.7172L18.5831 10.7098C18.5831 10.7098 18.5358 10.6725 18.4612 10.6252C16.4591 9.43137 14.2728 8.51111 12.1687 8.38924C10.0198 8.54096 8.65928 10.1129 8.65928 10.1129C3.28946 15.8383 0.00390625 23.5337 0.00390625 32C0.00390625 49.6714 14.33 64 32.0039 64C41.383 64 49.822 59.9559 55.6768 53.5265C55.6743 53.5166 55.0028 49.2983 50.6975 43.247C49.6852 41.8293 45.9868 37.4046 43.915 35.0816Z" fill="#455A64"/>
</svg>
